{
  "metatags": {
    "robots": "",
    "keywords": "",
    "news_keywords": "",
    "description": "",
    "abstract": "",
    "author": "",
    "og:title": "",
    "og:type": "",
    "og:locale": "",
    "og:locale:alternate": "",
    "og:site_name": "Waterloo Innovation Summit",
    "og:description": "",
    "og:determiner": "",
    "og:updated_time": "",
    "og:url": "",
    "og:see_also": "",
    "og:street-address": "",
    "og:locality": "",
    "og:region": "",
    "og:postal-code": "",
    "og:country-name": "",
    "og:latitude": "",
    "og:longitude": "",
    "profile:first_name": "",
    "profile:last_name": "",
    "profile:gender": "",
    "profile:username": "",
    "og:email": "",
    "og:phone_number": "",
    "og:fax_number": "",
    "article:published_time": "",
    "article:modified_time": "",
    "article:publisher": "",
    "article:author": "",
    "article:section": "",
    "article:tag": "",
    "og:image": "",
    "og:image:secure_url": "",
    "og:image:type": "",
    "og:image:width": "",
    "og:image:height": "",
    "og:video": "",
    "og:video:secure_url": "",
    "og:video:type": "",
    "og:video:width": "",
    "og:video:height": "",
    "og:video:release_date": "",
    "video:director": "",
    "video:actor": "",
    "video:actor:role": "",
    "video:writer": "",
    "video:tag": "",
    "og:audio": "",
    "og:audio:secure_url": "",
    "og:audio:type": "",
    "twitter:title": "",
    "twitter:description": "",
    "twitter:url": "",
    "twitter:card": "",
    "twitter:site": "",
    "twitter:image:src": "",
    "twitter:image:height": "",
    "twitter:image:width": "",
    "twitter:creator": "",
    "twitter:creator:id": ""
  }
}